%YAML 1.1
%TAG !u! tag:unity3d.com,2011:
--- !u!114 &11400000
MonoBehaviour:
  m_ObjectHideFlags: 0
  m_CorrespondingSourceObject: {fileID: 0}
  m_PrefabInstance: {fileID: 0}
  m_PrefabAsset: {fileID: 0}
  m_GameObject: {fileID: 0}
  m_Enabled: 1
  m_EditorHideFlags: 0
  m_Script: {fileID: 11500000, guid: 9bdfa1a50490a974dacd17be38e857aa, type: 3}
  m_Name: BasicTire
  m_EditorClassIdentifier: 
  Fy:
  - -22.1
  - 1011
  - 1078
  - 1.82
  - 0.208
  - 0
  - -0.354
  - 0.707
  Mz:
  - -2.72
  - -2.28
  - -1.86
  - -2.73
  - 0.11
  - -0.07
  - 0.643
  - -4.04
  Fx:
  - -21.3
  - 1144
  - 49.6
  - 226
  - 0.069
  - -0.006
  - 0.056
  - 0.486
  mass: 5
