%YAML 1.1
%TAG !u! tag:unity3d.com,2011:
--- !u!114 &11400000
MonoBehaviour:
  m_ObjectHideFlags: 0
  m_CorrespondingSourceObject: {fileID: 0}
  m_PrefabInstance: {fileID: 0}
  m_PrefabAsset: {fileID: 0}
  m_GameObject: {fileID: 0}
  m_Enabled: 1
  m_EditorHideFlags: 0
  m_Script: {fileID: 11500000, guid: 725c2c1a832fc9a41b0c3c77e47c2b66, type: 3}
  m_Name: BasicGearbox
  m_EditorClassIdentifier: 
  ratios:
  - 0.33
  - 0.48
  - 0.69
  - 1
  - 1.19
  reverseRatio: -0.29
  mass: 50
