%YAML 1.1
%TAG !u! tag:unity3d.com,2011:
--- !u!114 &11400000
MonoBehaviour:
  m_ObjectHideFlags: 0
  m_CorrespondingSourceObject: {fileID: 0}
  m_PrefabInstance: {fileID: 0}
  m_PrefabAsset: {fileID: 0}
  m_GameObject: {fileID: 0}
  m_Enabled: 1
  m_EditorHideFlags: 0
  m_Script: {fileID: 11500000, guid: 9fa879752f7c7af4aba6e906dd4d1366, type: 3}
  m_Name: DieselEngine
  m_EditorClassIdentifier: 
  engineTorque: 0
  mass: 100
  a0: 105
  a1: 0.07
  a2: -0.00001
